######################################################################
## PARAM_CARD AUTOMATICALY GENERATED BY MG5                       ####
######################################################################
###################################
## INFORMATION FOR SMINPUTS
###################################
BLOCK SMINPUTS # 
      1 1.325070e+02 # aewm1
      2 1.166390e-05 # gf
      3 1.180000e-01 # as
###################################
## INFORMATION FOR MASS
###################################
BLOCK MASS # 
      1 0.000000e+00 # md
      2 0.000000e+00 # mu
      3 0.000000e+00 # ms
      4 1.420000e+00 # mc
      5 4.700000e+00 # mb
      6 1.725000e+02 # mt
      11 0.000000e+00 # me
      13 1.056600e-01 # mmu
      15 1.777000e+00 # mta
      23 9.118800e+01 # mz
      25 1.250000e+02 # mh1
      35 4.000000e+02 # mh2
      36 4.000000e+02 # mh3
      37 4.000000e+02 # mhc
      52 1.000000e+01 # mxd
      55 1.000000e+02 # mh4
      22 0.000000e+00 # a : 0.0
      24 8.041900e+01 # w+ : cmath.sqrt(mz**2/2. + cmath.sqrt(mz**4/4. - (aew*cmath.pi*mz**2)/(gf*cmath.sqrt(2))))
      21 0.000000e+00 # g : 0.0
      9000001 0.000000e+00 # gha : 0.0
      9000003 8.041900e+01 # ghwp : cmath.sqrt(mz**2/2. + cmath.sqrt(mz**4/4. - (aew*cmath.pi*mz**2)/(gf*cmath.sqrt(2))))
      9000004 8.041900e+01 # ghwm : cmath.sqrt(mz**2/2. + cmath.sqrt(mz**4/4. - (aew*cmath.pi*mz**2)/(gf*cmath.sqrt(2))))
      82 0.000000e+00 # ghg : 0.0
      12 0.000000e+00 # ve : 0.0
      14 0.000000e+00 # vm : 0.0
      16 0.000000e+00 # vt : 0.0
      251 8.041900e+01 # g+ : cmath.sqrt(mz**2/2. + cmath.sqrt(mz**4/4. - (aew*cmath.pi*mz**2)/(gf*cmath.sqrt(2))))
      9000002 9.118800e+01 # ghz : mz
      250 9.118800e+01 # g0 : mz
###################################
## INFORMATION FOR DMINPUTS
###################################
BLOCK DMINPUTS # 
      1 1.000000e+00 # gpxd
###################################
## INFORMATION FOR FRBLOCK
###################################
BLOCK FRBLOCK # 
      2 4.000000e-01 # tanbeta
      3 1.000000e+00 # sinbma
###################################
## INFORMATION FOR HIGGS
###################################
BLOCK HIGGS # 
      1 3.000000e+00 # lam3
      2 3.000000e+00 # lap1
      3 3.000000e+00 # lap2
      5 0.000000e+00 # sinp
###################################
## INFORMATION FOR LOOP
###################################
BLOCK LOOP # 
      1 9.118800e+01 # mu_r
###################################
## INFORMATION FOR YUKAWA
###################################
BLOCK YUKAWA # 
      1 0.000000e+00 # ymdo
      2 0.000000e+00 # ymup
      3 0.000000e+00 # yms
      4 1.420000e+00 # ymc
      5 4.700000e+00 # ymb
      6 1.725000e+02 # ymt
      11 0.000000e+00 # yme
      13 1.056600e-01 # ymm
      15 1.777000e+00 # ymtau
###################################
## INFORMATION FOR QNUMBERS 9000001
###################################
BLOCK QNUMBERS 9000001 #  gha
      1 0 # 3 times electric charge
      2 -1 # number of spin states (2s+1)
      3 1 # colour rep (1: singlet, 3: triplet, 8: octet)
      4 1 # particle/antiparticle distinction (0=own anti)
###################################
## INFORMATION FOR QNUMBERS 9000002
###################################
BLOCK QNUMBERS 9000002 #  ghz
      1 0 # 3 times electric charge
      2 -1 # number of spin states (2s+1)
      3 1 # colour rep (1: singlet, 3: triplet, 8: octet)
      4 1 # particle/antiparticle distinction (0=own anti)
###################################
## INFORMATION FOR QNUMBERS 9000003
###################################
BLOCK QNUMBERS 9000003 #  ghwp
      1 3 # 3 times electric charge
      2 -1 # number of spin states (2s+1)
      3 1 # colour rep (1: singlet, 3: triplet, 8: octet)
      4 1 # particle/antiparticle distinction (0=own anti)
###################################
## INFORMATION FOR QNUMBERS 9000004
###################################
BLOCK QNUMBERS 9000004 #  ghwm
      1 -3 # 3 times electric charge
      2 -1 # number of spin states (2s+1)
      3 1 # colour rep (1: singlet, 3: triplet, 8: octet)
      4 1 # particle/antiparticle distinction (0=own anti)
###################################
## INFORMATION FOR QNUMBERS 82
###################################
BLOCK QNUMBERS 82 #  ghg
      1 0 # 3 times electric charge
      2 -1 # number of spin states (2s+1)
      3 8 # colour rep (1: singlet, 3: triplet, 8: octet)
      4 1 # particle/antiparticle distinction (0=own anti)
###################################
## INFORMATION FOR QNUMBERS 250
###################################
BLOCK QNUMBERS 250 #  g0
      1 0 # 3 times electric charge
      2 1 # number of spin states (2s+1)
      3 1 # colour rep (1: singlet, 3: triplet, 8: octet)
      4 0 # particle/antiparticle distinction (0=own anti)
###################################
## INFORMATION FOR QNUMBERS 251
###################################
BLOCK QNUMBERS 251 #  g+
      1 3 # 3 times electric charge
      2 1 # number of spin states (2s+1)
      3 1 # colour rep (1: singlet, 3: triplet, 8: octet)
      4 1 # particle/antiparticle distinction (0=own anti)
###################################
## INFORMATION FOR QNUMBERS 37
###################################
BLOCK QNUMBERS 37 #  h+
      1 3 # 3 times electric charge
      2 1 # number of spin states (2s+1)
      3 1 # colour rep (1: singlet, 3: triplet, 8: octet)
      4 1 # particle/antiparticle distinction (0=own anti)
###################################
## INFORMATION FOR QNUMBERS 35
###################################
BLOCK QNUMBERS 35 #  h2
      1 0 # 3 times electric charge
      2 1 # number of spin states (2s+1)
      3 1 # colour rep (1: singlet, 3: triplet, 8: octet)
      4 0 # particle/antiparticle distinction (0=own anti)
###################################
## INFORMATION FOR QNUMBERS 36
###################################
BLOCK QNUMBERS 36 #  h3
      1 0 # 3 times electric charge
      2 1 # number of spin states (2s+1)
      3 1 # colour rep (1: singlet, 3: triplet, 8: octet)
      4 0 # particle/antiparticle distinction (0=own anti)
###################################
## INFORMATION FOR QNUMBERS 55
###################################
BLOCK QNUMBERS 55 #  h4
      1 0 # 3 times electric charge
      2 1 # number of spin states (2s+1)
      3 1 # colour rep (1: singlet, 3: triplet, 8: octet)
      4 0 # particle/antiparticle distinction (0=own anti)
###################################
## INFORMATION FOR QNUMBERS 52
###################################
BLOCK QNUMBERS 52 #  xd
      1 0 # 3 times electric charge
      2 2 # number of spin states (2s+1)
      3 1 # colour rep (1: singlet, 3: triplet, 8: octet)
      4 1 # particle/antiparticle distinction (0=own anti)
#
#*************************
#      Decay widths      *
#*************************
#
#      PDG        Width
DECAY  1   0.000000e+00
#
#      PDG        Width
DECAY  2   0.000000e+00
#
#      PDG        Width
DECAY  3   0.000000e+00
#
#      PDG        Width
DECAY  4   0.000000e+00
#
#      PDG        Width
DECAY  5   0.000000e+00
#
#      PDG        Width
DECAY  6   1.320000e+00
#  BR             NDA  ID1    ID2   ...
   1.000000e+00   2    5  24 # 1.32
DECAY -6   1.320000e+00
#  BR             NDA  ID1    ID2   ...
   1.000000e+00   2   -5 -24 # 1.32
#
#      PDG        Width
DECAY  11   0.000000e+00
#
#      PDG        Width
DECAY  12   0.000000e+00
#
#      PDG        Width
DECAY  13   0.000000e+00
#
#      PDG        Width
DECAY  14   0.000000e+00
#
#      PDG        Width
DECAY  15   0.000000e+00
#
#      PDG        Width
DECAY  16   0.000000e+00
#
#      PDG        Width
DECAY  21   0.000000e+00
#
#      PDG        Width
DECAY  22   0.000000e+00
#
#      PDG        Width
DECAY  23   2.495200e+00
#
#      PDG        Width
DECAY  -24   2.085000e+00
#  BR             NDA  ID1    ID2   ...
      3.337000e-01   2    1  -2
      3.337000e-01   2    3  -4
      1.082000e-01   2   11 -12
      1.082000e-01   2   13 -14
      1.082000e-01   2   15 -16
DECAY  24   2.085000e+00
#  BR             NDA  ID1    ID2   ...
      3.337000e-01   2   -1   2
      3.337000e-01   2   -3   4
      1.082000e-01   2  -11  12
      1.082000e-01   2  -13  14
      1.082000e-01   2  -15  16
#
#      PDG        Width
DECAY  25   4.070000e-03
#
#      PDG        Width
DECAY  35   9.383159e+01
#  BR             NDA  ID1    ID2   ...
   9.950960e-01   2    -6  6 # 
   1.406810e-05   2    -5  5 # 
   1.413240e-06   2    -15  15 # 
#
#      PDG        Width
DECAY  36   2.558644e+01
#  BR             NDA  ID1    ID2   ...
   9.940030e-01   2    -6  6 # 
   4.462330e-05   2    -5  5 # 
   5.182270e-06   2    -15  15 # 
#
#      PDG        Width
DECAY  37   0.000000e+00
#
#      PDG        Width
DECAY  52   0.000000e+00
#
#      PDG        Width
DECAY  55   0.000000e+00
#
#      PDG        Width
DECAY  82   0.000000e+00
#
#      PDG        Width
DECAY  250   2.495200e+00
#
#      PDG        Width
DECAY  251   2.085000e+00
#
#      PDG        Width
DECAY  9000001   0.000000e+00
#
#      PDG        Width
DECAY  9000002   0.000000e+00
#
#      PDG        Width
DECAY  9000003   0.000000e+00
#
#      PDG        Width
DECAY  9000004   0.000000e+00